{
  "photos": {
    "page": 1,
    "pages": 69208,
    "perpage": 30,
    "total": "2076224",
    "photo": [{
      "id": "8030820473",
      "owner": "77295944@N07",
      "secret": "f9fb353b0c",
      "server": "8171",
      "farm": 9,
      "title": "Labradors by the Stream",
      "ispublic": 1,
      "isfriend": 0,
      "isfamily": 0
    }, {
      "id": "8030785582",
      "owner": "26686042@N03",
      "secret": "e60aa780c5",
      "server": "8171",
      "farm": 9,
      "title": "ZOER SEMOR CHAS JEAS",
      "ispublic": 1,
      "isfriend": 0,
      "isfamily": 0
    }, {
      "id": "8030760287",
      "owner": "33815896@N04",
      "secret": "88838cbb7d",
      "server": "8316",
      "farm": 9,
      "title": "Mother and Daughter",
      "ispublic": 1,
      "isfriend": 0,
      "isfamily": 0
    }, {
      "id": "8030732047",
      "owner": "24844167@N07",
      "secret": "3c02ec7781",
      "server": "8172",
      "farm": 9,
      "title": "_DSC2529.jpg",
      "ispublic": 1,
      "isfriend": 0,
      "isfamily": 0
    }, {
      "id": "8030724632",
      "owner": "24844167@N07",
      "secret": "c22d691e38",
      "server": "8170",
      "farm": 9,
      "title": "_DSC2526.jpg",
      "ispublic": 1,
      "isfriend": 0,
      "isfamily": 0
    }, {
      "id": "8030736339",
      "owner": "24844167@N07",
      "secret": "4590a9556a",
      "server": "8321",
      "farm": 9,
      "title": "_DSC2544.jpg",
      "ispublic": 1,
      "isfriend": 0,
      "isfamily": 0
    }, {
      "id": "8030728866",
      "owner": "24844167@N07",
      "secret": "5a6af1527c",
      "server": "8314",
      "farm": 9,
      "title": "_DSC2538.jpg",
      "ispublic": 1,
      "isfriend": 0,
      "isfamily": 0
    }, {
      "id": "8030730222",
      "owner": "24844167@N07",
      "secret": "7fba16e806",
      "server": "8313",
      "farm": 9,
      "title": "_DSC2542.jpg",
      "ispublic": 1,
      "isfriend": 0,
      "isfamily": 0
    }, {
      "id": "8030737313",
      "owner": "24844167@N07",
      "secret": "d742f560ca",
      "server": "8315",
      "farm": 9,
      "title": "_DSC2545.jpg",
      "ispublic": 1,
      "isfriend": 0,
      "isfamily": 0
    }, {
      "id": "8030604492",
      "owner": "8920647@N08",
      "secret": "d6be8d3f76",
      "server": "8180",
      "farm": 9,
      "title": "In a sluggish economy, never ever f--- with another man's livelihood.",
      "ispublic": 1,
      "isfriend": 0,
      "isfamily": 0
    }, {
      "id": "8030687517",
      "owner": "61507105@N00",
      "secret": "7074bdc816",
      "server": "8460",
      "farm": 9,
      "title": "A367336_233",
      "ispublic": 1,
      "isfriend": 0,
      "isfamily": 0
    }, {
      "id": "8030687403",
      "owner": "61507105@N00",
      "secret": "3ed660de2f",
      "server": "8313",
      "farm": 9,
      "title": "A367352_287",
      "ispublic": 1,
      "isfriend": 0,
      "isfamily": 0
    }, {
      "id": "7999770223",
      "owner": "13455800@N05",
      "secret": "99130e3643",
      "server": "8452",
      "farm": 9,
      "title": "Man's Best Friend",
      "ispublic": 1,
      "isfriend": 0,
      "isfamily": 0
    }, {
      "id": "8030579031",
      "owner": "22273702@N02",
      "secret": "7e3b169048",
      "server": "8314",
      "farm": 9,
      "title": "Drunk Winnies",
      "ispublic": 1,
      "isfriend": 0,
      "isfamily": 0
    }, {
      "id": "8030516778",
      "owner": "76102226@N00",
      "secret": "9e0f6eb277",
      "server": "8037",
      "farm": 9,
      "title": "Boy with dog in Pak Beng",
      "ispublic": 1,
      "isfriend": 0,
      "isfamily": 0
    }, {
      "id": "8030458689",
      "owner": "75220106@N08",
      "secret": "f096f426b9",
      "server": "8317",
      "farm": 9,
      "title": "Next lot - September 2011 025",
      "ispublic": 1,
      "isfriend": 0,
      "isfamily": 0
    }, {
      "id": "8030507971",
      "owner": "67083473@N02",
      "secret": "8191f445ba",
      "server": "8320",
      "farm": 9,
      "title": "761_Rich and dogs on MO River Greenway, Riverwood Trail_l",
      "ispublic": 1,
      "isfriend": 0,
      "isfamily": 0
    }, {
      "id": "8030463518",
      "owner": "75245097@N07",
      "secret": "a8e723ee13",
      "server": "8461",
      "farm": 9,
      "title": "Dog on Porch.",
      "ispublic": 1,
      "isfriend": 0,
      "isfamily": 0
    }, {
      "id": "8030443611",
      "owner": "87623620@N06",
      "secret": "f44e84670f",
      "server": "8457",
      "farm": 9,
      "title": "tea cup yorkies",
      "ispublic": 1,
      "isfriend": 0,
      "isfamily": 0
    }, {
      "id": "8030431802",
      "owner": "72256070@N00",
      "secret": "731d53f928",
      "server": "8029",
      "farm": 9,
      "title": "royal artillery",
      "ispublic": 1,
      "isfriend": 0,
      "isfamily": 0
    }, {
      "id": "8030418657",
      "owner": "58260373@N03",
      "secret": "3dbf0ba663",
      "server": "8030",
      "farm": 9,
      "title": "Taking a dip",
      "ispublic": 1,
      "isfriend": 0,
      "isfamily": 0
    }, {
      "id": "8030420162",
      "owner": "58260373@N03",
      "secret": "899430624f",
      "server": "8034",
      "farm": 9,
      "title": "Dogs at play",
      "ispublic": 1,
      "isfriend": 0,
      "isfamily": 0
    }, {
      "id": "8030418631",
      "owner": "58260373@N03",
      "secret": "5f145df1b6",
      "server": "8452",
      "farm": 9,
      "title": "Making a splash",
      "ispublic": 1,
      "isfriend": 0,
      "isfamily": 0
    }, {
      "id": "8030392152",
      "owner": "80162343@N02",
      "secret": "f1954d0c24",
      "server": "8042",
      "farm": 9,
      "title": "Did you say 'biscuit'....?",
      "ispublic": 1,
      "isfriend": 0,
      "isfamily": 0
    }, {
      "id": "8030369325",
      "owner": "46578782@N02",
      "secret": "d54d3eafa9",
      "server": "8310",
      "farm": 9,
      "title": "Katy",
      "ispublic": 1,
      "isfriend": 0,
      "isfamily": 0
    }, {
      "id": "8030341860",
      "owner": "66937168@N05",
      "secret": "e62ed75641",
      "server": "8182",
      "farm": 9,
      "title": "Best Friend!",
      "ispublic": 1,
      "isfriend": 0,
      "isfamily": 0
    }, {
      "id": "8030221892",
      "owner": "83922036@N03",
      "secret": "ffce19cc25",
      "server": "8450",
      "farm": 9,
      "title": "Cat Quilt 2",
      "ispublic": 1,
      "isfriend": 0,
      "isfamily": 0
    }]
  },
  "stat": "ok"
}