{
  "photos": {
    "page": 1,
    "pages": 61752,
    "perpage": 30,
    "total": "1852541",
    "photo": [{
      "id": "8030717913",
      "owner": "62013905@N04",
      "secret": "8c28e635f6",
      "server": "8462",
      "farm": 9,
      "title": "SAM_0903",
      "ispublic": 1,
      "isfriend": 0,
      "isfamily": 0
    }, {
      "id": "8030515732",
      "owner": "61697358@N03",
      "secret": "90f8e69dfe",
      "server": "8313",
      "farm": 9,
      "title": "my cat frostie",
      "ispublic": 1,
      "isfriend": 0,
      "isfamily": 0
    }, {
      "id": "8030556216",
      "owner": "61697358@N03",
      "secret": "e88a966806",
      "server": "8459",
      "farm": 9,
      "title": "my cat frostie",
      "ispublic": 1,
      "isfriend": 0,
      "isfamily": 0
    }, {
      "id": "8030529254",
      "owner": "61697358@N03",
      "secret": "c92ee7a87f",
      "server": "8032",
      "farm": 9,
      "title": "my cat frostie",
      "ispublic": 1,
      "isfriend": 0,
      "isfamily": 0
    }, {
      "id": "8030532818",
      "owner": "61697358@N03",
      "secret": "19a36c52e1",
      "server": "8456",
      "farm": 9,
      "title": "my cat frostie",
      "ispublic": 1,
      "isfriend": 0,
      "isfamily": 0
    }, {
      "id": "8030549759",
      "owner": "61697358@N03",
      "secret": "b5de2c0b15",
      "server": "8458",
      "farm": 9,
      "title": "my cat frostie",
      "ispublic": 1,
      "isfriend": 0,
      "isfamily": 0
    }, {
      "id": "8030548644",
      "owner": "61697358@N03",
      "secret": "4ff513d65a",
      "server": "8450",
      "farm": 9,
      "title": "my cat frostie",
      "ispublic": 1,
      "isfriend": 0,
      "isfamily": 0
    }, {
      "id": "8030536901",
      "owner": "61697358@N03",
      "secret": "e2e9534f81",
      "server": "8459",
      "farm": 9,
      "title": "my cat frostie",
      "ispublic": 1,
      "isfriend": 0,
      "isfamily": 0
    }, {
      "id": "8030546840",
      "owner": "61697358@N03",
      "secret": "02e87c95c7",
      "server": "8042",
      "farm": 9,
      "title": "my cat frostie",
      "ispublic": 1,
      "isfriend": 0,
      "isfamily": 0
    }, {
      "id": "8030700231",
      "owner": "70297522@N08",
      "secret": "7a63ccbb76",
      "server": "8317",
      "farm": 9,
      "title": "ljubaF",
      "ispublic": 1,
      "isfriend": 0,
      "isfamily": 0
    }, {
      "id": "8030542391",
      "owner": "61697358@N03",
      "secret": "18407cf2de",
      "server": "8455",
      "farm": 9,
      "title": "my cat frostie",
      "ispublic": 1,
      "isfriend": 0,
      "isfamily": 0
    }, {
      "id": "8030532587",
      "owner": "61697358@N03",
      "secret": "3970c29f2f",
      "server": "8313",
      "farm": 9,
      "title": "my cat frostie",
      "ispublic": 1,
      "isfriend": 0,
      "isfamily": 0
    }, {
      "id": "8030540297",
      "owner": "61697358@N03",
      "secret": "e6afde005e",
      "server": "8318",
      "farm": 9,
      "title": "my cat frostie",
      "ispublic": 1,
      "isfriend": 0,
      "isfamily": 0
    }, {
      "id": "8030551460",
      "owner": "61697358@N03",
      "secret": "75534c29a5",
      "server": "8314",
      "farm": 9,
      "title": "my cat frostie",
      "ispublic": 1,
      "isfriend": 0,
      "isfamily": 0
    }, {
      "id": "8030540964",
      "owner": "61697358@N03",
      "secret": "eefd4a5f80",
      "server": "8040",
      "farm": 9,
      "title": "my cat frostie",
      "ispublic": 1,
      "isfriend": 0,
      "isfamily": 0
    }, {
      "id": "8030553800",
      "owner": "61697358@N03",
      "secret": "aac2e09306",
      "server": "8322",
      "farm": 9,
      "title": "my cat frostie",
      "ispublic": 1,
      "isfriend": 0,
      "isfamily": 0
    }, {
      "id": "8030542450",
      "owner": "61697358@N03",
      "secret": "50861614da",
      "server": "8462",
      "farm": 9,
      "title": "my cat frostie",
      "ispublic": 1,
      "isfriend": 0,
      "isfamily": 0
    }, {
      "id": "8030620850",
      "owner": "24016180@N05",
      "secret": "5986690b68",
      "server": "8174",
      "farm": 9,
      "title": "Summer Kitty",
      "ispublic": 1,
      "isfriend": 0,
      "isfamily": 0
    }, {
      "id": "8030623660",
      "owner": "24016180@N05",
      "secret": "1cec8ab715",
      "server": "8449",
      "farm": 9,
      "title": "",
      "ispublic": 1,
      "isfriend": 0,
      "isfamily": 0
    }, {
      "id": "8030628795",
      "owner": "24016180@N05",
      "secret": "736a2138d5",
      "server": "8041",
      "farm": 9,
      "title": "",
      "ispublic": 1,
      "isfriend": 0,
      "isfamily": 0
    }, {
      "id": "8030612092",
      "owner": "18572907@N00",
      "secret": "ab87488e70",
      "server": "8320",
      "farm": 9,
      "title": "Mir\u00f3",
      "ispublic": 1,
      "isfriend": 0,
      "isfamily": 0
    }, {
      "id": "8030628927",
      "owner": "24016180@N05",
      "secret": "7f3415ba1c",
      "server": "8172",
      "farm": 9,
      "title": "",
      "ispublic": 1,
      "isfriend": 0,
      "isfamily": 0
    }, {
      "id": "8030628583",
      "owner": "24016180@N05",
      "secret": "79d586d70c",
      "server": "8444",
      "farm": 9,
      "title": "",
      "ispublic": 1,
      "isfriend": 0,
      "isfamily": 0
    }, {
      "id": "8030608705",
      "owner": "18572907@N00",
      "secret": "0f1395b4f5",
      "server": "8032",
      "farm": 9,
      "title": "Cuca",
      "ispublic": 1,
      "isfriend": 0,
      "isfamily": 0
    }, {
      "id": "8030591463",
      "owner": "29686499@N07",
      "secret": "151d507583",
      "server": "8309",
      "farm": 9,
      "title": "Meow Mix",
      "ispublic": 1,
      "isfriend": 0,
      "isfamily": 0
    }, {
      "id": "8030578463",
      "owner": "15303511@N00",
      "secret": "879a84fb97",
      "server": "8459",
      "farm": 9,
      "title": "Simon",
      "ispublic": 1,
      "isfriend": 0,
      "isfamily": 0
    }, {
      "id": "8030595720",
      "owner": "18572907@N00",
      "secret": "92878699af",
      "server": "8308",
      "farm": 9,
      "title": "Rosinha",
      "ispublic": 1,
      "isfriend": 0,
      "isfamily": 0
    }, {
      "id": "8030589034",
      "owner": "78077792@N05",
      "secret": "762dc2e5ef",
      "server": "8171",
      "farm": 9,
      "title": "E-Me-O",
      "ispublic": 1,
      "isfriend": 0,
      "isfamily": 0
    }, {
      "id": "8030543964",
      "owner": "56558157@N00",
      "secret": "10853f0afa",
      "server": "8179",
      "farm": 9,
      "title": "Screamin' Meanies Primitive Art Print-Bright",
      "ispublic": 1,
      "isfriend": 0,
      "isfamily": 0
    }]
  },
  "stat": "ok"
}